<?xml version="1.0" encoding="iso-8859-1"?>
<!-- Generator: Adobe Illustrator 18.1.1, SVG Export Plug-In . SVG Version: 6.00 Build 0)  -->
<svg version="1.1" id="Capa_1" xmlns="http://www.w3.org/2000/svg" xmlns:xlink="http://www.w3.org/1999/xlink" x="0px" y="0px"
	 viewBox="0 0 612.001 612.001" style="enable-background:new 0 0 612.001 612.001;" xml:space="preserve">
<g>
	<g>
		<g>
			<path d="M542.423,213.376h-57.535V32.386c0-9.448-7.659-17.108-17.108-17.108H144.22c-9.449,0-17.108,7.66-17.108,17.108v180.99
				H69.579C31.212,213.376,0,244.588,0,282.955v183.955c0,38.364,31.212,69.576,69.579,69.576h54.233v43.129
				c0,9.448,7.659,17.108,17.108,17.108h330.163c9.449,0,17.108-7.66,17.108-17.108v-43.13h54.233
				c38.366,0,69.579-31.212,69.579-69.576V282.955C612,244.588,580.788,213.376,542.423,213.376z M577.784,466.911
				c0,19.497-15.863,35.36-35.363,35.36h-54.233V362.875c0-9.449-7.659-17.108-17.108-17.108H140.919
				c-9.449,0-17.108,7.659-17.108,17.108v139.395H69.579c-19.5-0.001-35.363-15.863-35.363-35.36V328.52h543.569V466.911z
				 M161.328,49.494h289.345v163.882H161.328V49.494z M34.216,282.955c0-19.499,15.863-35.363,35.363-35.363h472.844
				c19.5,0,35.363,15.863,35.363,35.363v11.35H34.216V282.955z M453.974,562.507H158.027V379.982h295.947V562.507z"/>
			<path d="M535.533,253.839c-4.505,0-8.91,1.825-12.104,5.018c-3.179,3.179-5.004,7.584-5.004,12.089s1.825,8.91,5.004,12.104
				c3.193,3.179,7.599,5.004,12.104,5.004c4.491,0,8.91-1.825,12.089-5.004c3.193-3.193,5.018-7.599,5.018-12.104
				s-1.823-8.91-5.018-12.089C544.443,255.664,540.025,253.839,535.533,253.839z"/>
			<path d="M202.439,451.799h200.323c9.448,0,17.108-7.66,17.108-17.108c0-9.449-7.66-17.108-17.108-17.108H202.439
				c-9.448,0-17.108,7.659-17.108,17.108C185.331,444.14,192.991,451.799,202.439,451.799z"/>
			<path d="M202.439,524.907h93.581c9.449,0,17.108-7.66,17.108-17.108c0-9.448-7.659-17.108-17.108-17.108h-93.581
				c-9.448,0-17.108,7.66-17.108,17.108C185.331,517.249,192.991,524.907,202.439,524.907z"/>
		</g>
	</g>
</g>
</svg>
